<?xml version="1.0" encoding="UTF-8" standalone="no"?>
<svg
   xmlns:osb="http://www.openswatchbook.org/uri/2009/osb"
   xmlns:dc="http://purl.org/dc/elements/1.1/"
   xmlns:cc="http://creativecommons.org/ns#"
   xmlns:rdf="http://www.w3.org/1999/02/22-rdf-syntax-ns#"
   xmlns:svg="http://www.w3.org/2000/svg"
   xmlns="http://www.w3.org/2000/svg"
   width="16"
   viewBox="0 0 16 16"
   version="1.1"
   id="svg7384"
   height="16">
  <metadata
     id="metadata90">
    <rdf:RDF>
      <cc:Work
         rdf:about="">
        <dc:format>image/svg+xml</dc:format>
        <dc:type
           rdf:resource="http://purl.org/dc/dcmitype/StillImage" />
        <dc:title>Gnome Symbolic Icon Theme</dc:title>
      </cc:Work>
    </rdf:RDF>
  </metadata>
  <title
     id="title9167">Gnome Symbolic Icon Theme</title>
  <defs
     id="defs7386">
    <linearGradient
       osb:paint="solid"
       id="linearGradient7212">
      <stop
         style="stop-color:#000000;stop-opacity:1;"
         offset="0"
         id="stop7214" />
    </linearGradient>
  </defs>
  <g
     transform="translate(-399.9882,-140)"
     style="display:inline"
     id="layer1" />
  <g
     transform="translate(-640.9884,227)"
     style="display:inline"
     id="layer9">
    <path
       d="m 652.39473,-225.03516 a 3.750375,3.750375 0 0 0 -2.63867,0.98438 l -0.75586,0.67383 -0.75586,-0.67383 a 3.750375,3.750375 0 1 0 -4.98828,5.60156 l 5.74414,5.11719 5.74414,-5.11719 a 3.750375,3.750375 0 0 0 -2.34961,-6.58594 z m -6.51367,1.95508 c 0.29362,0.0185 0.60632,0.1398 1.02734,0.51758 l 0.002,0.002 2.08984,1.86328 2.09766,-1.86914 0.01,-0.01 c 0.33575,-0.30778 0.77517,-0.47166 1.23047,-0.45899 h 0.002 c 0.8914,0.0246 1.36473,0.50179 1.59961,1.16016 0.23488,0.65837 0.17066,1.32887 -0.5039,1.91211 l -0.01,0.01 -4.42578,3.94335 -4.41602,-3.93554 -0.004,-0.002 c -0.5652,-0.49946 -0.65603,-0.86249 -0.65625,-1.25195 -2.2e-4,-0.38945 0.17863,-0.85496 0.50781,-1.22461 0.32918,-0.36965 0.77133,-0.60174 1.1582,-0.64648 0.0967,-0.0112 0.19315,-0.0159 0.29102,-0.01 z"
       id="path1995"
       style="color:#000000;font-style:normal;font-variant:normal;font-weight:normal;font-stretch:normal;font-size:medium;line-height:normal;font-family:sans-serif;font-variant-ligatures:normal;font-variant-position:normal;font-variant-caps:normal;font-variant-numeric:normal;font-variant-alternates:normal;font-feature-settings:normal;text-indent:0;text-align:start;text-decoration:none;text-decoration-line:none;text-decoration-style:solid;text-decoration-color:#000000;letter-spacing:normal;word-spacing:normal;text-transform:none;writing-mode:lr-tb;direction:ltr;text-orientation:mixed;dominant-baseline:auto;baseline-shift:baseline;text-anchor:start;white-space:normal;shape-padding:0;clip-rule:nonzero;display:inline;overflow:visible;visibility:visible;opacity:1;isolation:auto;mix-blend-mode:normal;color-interpolation:sRGB;color-interpolation-filters:linearRGB;solid-color:#000000;solid-opacity:1;vector-effect:none;fill:#2e3436;fill-opacity:1;fill-rule:evenodd;stroke:none;stroke-width:7.5;stroke-linecap:round;stroke-linejoin:miter;stroke-miterlimit:4;stroke-dasharray:none;stroke-dashoffset:0;stroke-opacity:1;color-rendering:auto;image-rendering:auto;shape-rendering:auto;text-rendering:auto;enable-background:accumulate" />
  </g>
  <g
     transform="translate(-640.9884,227)"
     style="display:inline"
     id="g7628" />
  <g
     transform="translate(-399.9882,-140)"
     style="display:inline"
     id="g6387" />
  <g
     transform="translate(-399.9882,-140)"
     style="display:inline"
     id="layer10" />
  <g
     transform="translate(-399.9882,-140)"
     id="layer12" />
  <g
     transform="translate(-399.9882,-140)"
     style="display:inline"
     id="layer11" />
</svg>
